…
    ℹ Use `spec()` to retrieve the full column specification for this data.
    ℹ Specify the column types or set `show_col_types = FALSE` to quiet this message.

``` r
weather_column <- weather |> 
  select(-item) |> 
  slice(-1)
  

print(weather_column)
```

    # A tibble: 5,460 × 26
       date      station AMB_TEMP CO    NO    NO2   NOx   O3    PM10  PM2   RAINFALL
       <chr>     <chr>   <chr>    <chr> <chr> <chr> <chr> <chr> <chr> <chr> <chr>   
     1 2015/01/… Cailiao 16       16    15    15    15    14    14    14    14      
     2 2015/01/… Cailiao 0.74     0.7   0.66  0.61  0.51  0.51  0.51  0.6   0.62    
     3 2015/01/… Cailiao 1        0.8   1.1   1.7   2     1.7   1.9   2.4   3.4     
     4 2015/01/… Cailiao 15       13    13    12    11    13    13    16    16      
     5 2015/01/… Cailiao 16       14    14    13    13    15    15    18    19      
     6 2015/01/… Cailiao 35       36    35    34    34    32    30    26    26      
     7 2015/01/… Cailiao 171      174   160   142   123   110   104   104   109     
     8 2015/01/… Cailiao 76       78    69    60    52    44    40    41    44      
     9 2015/01/… Cailiao NR       NR    NR    NR    NR    NR    NR    NR    NR      
    10 2015/01/… Cailiao 57       57    58    59    59    57    57    56    53      
    # ℹ 5,450 more rows
    # ℹ 15 more variables: RH <chr>, SO2 <chr>, WD_HR <chr>, WIND_DIREC <chr>,
    #   WIND_SPEED <chr>, WS_HR <chr>, X19 <chr>, X20 <chr>, X21 <chr>, X22 <dbl>,
    #   X23 <dbl>, X24 <chr>, X25 <dbl>, X26 <dbl>, X27 <chr>
