…
    Warning: There were 15 warnings in `mutate()`.
    The first warning was:
    ℹ In argument: `across(.cols = c(AMB_TEMP:WS_HR), .fns = ~as.numeric(.))`.
    Caused by warning:
    ! NAs introduced by coercion
    ℹ Run `dplyr::last_dplyr_warnings()` to see the 14 remaining warnings.

``` r
# Show the first 6 rows and 10 columns of this weather_clean without using `kable()`
weather_clean |> 
  select(1:10) |> 
  print(n = 6)
```

    # A tibble: 8,736 × 10
      date       station hour   AMB_TEMP    CO    NO   NO2   NOx    O3  PM10
      <date>     <chr>   <time>    <dbl> <dbl> <dbl> <dbl> <dbl> <dbl> <dbl>
    1 2015-01-01 Cailiao 00:00        16  0.74   1      15    16    35   171
    2 2015-01-01 Cailiao 01:00        16  0.7    0.8    13    14    36   174
    3 2015-01-01 Cailiao 02:00        15  0.66   1.1    13    14    35   160
    4 2015-01-01 Cailiao 03:00        15  0.61   1.7    12    13    34   142
    5 2015-01-01 Cailiao 04:00        15  0.51   2      11    13    34   123
    6 2015-01-01 Cailiao 05:00        14  0.51   1.7    13    15    32   110
    # ℹ 8,730 more rows
…
